(footprint "KEEP_OUT_LAYER" (version 20220308) (generator pcbnew)
  (layer "F.Cu")
  (fp_text reference "REF**" (at 0 0) (layer "F.SilkS")
      (effects (font (size 1.27 1.27) (thickness 0.15)))
    (tstamp bf55618c-b866-4b30-b28f-97aaad6a4445)
  )
  (fp_text value "KEEP_OUT_LAYER" (at 0 0) (layer "F.SilkS")
      (effects (font (size 1.27 1.27) (thickness 0.15)))
    (tstamp b85efbbe-b9ce-4d73-abc0-852cf03a11f8)
  )
  (zone (net 0) (net_name "") (layers *.Cu) (tstamp aae315f2-6324-4db5-a3c7-b14d512389f2) (hatch edge 0.508)
    (connect_pads (clearance 0))
    (min_thickness 0.254) (filled_areas_thickness no)
    (keepout (tracks allowed) (vias allowed) (pads allowed ) (copperpour allowed) (footprints allowed))
    (fill (thermal_gap 0.508) (thermal_bridge_width 0.508) (island_removal_mode 0) (island_area_min 10))
    (polygon
      (pts
        (xy 0.67078 -0.121856)
        (xy 0.73098 -0.083167)
        (xy 0.760707 -0.018074)
        (xy 0.750523 0.052758)
        (xy 0.703661 0.106839)
        (xy 0.635 0.127)
        (xy 0 0.127)
        (xy -0.03578 0.121856)
        (xy -0.09598 0.083167)
        (xy -0.125707 0.018074)
        (xy -0.115523 -0.052758)
        (xy -0.068661 -0.106839)
        (xy 0 -0.127)
        (xy 0.635 -0.127)
      )
    )
  )
)
