(footprint "KEEP_OUT_LAYER_KEEP_OUT" (version 20220308) (generator pcbnew)
  (layer "F.Cu")
  (fp_text reference "REF**" (at 0 0) (layer "F.SilkS")
      (effects (font (size 1.27 1.27) (thickness 0.15)))
    (tstamp 155c9353-7c34-48cc-9c09-3a6ce9a988b5)
  )
  (fp_text value "KEEP_OUT_LAYER_KEEP_OUT" (at 0 0) (layer "F.SilkS")
      (effects (font (size 1.27 1.27) (thickness 0.15)))
    (tstamp 202b1813-009a-4358-b23c-5250485fbcfe)
  )
  (zone (net 0) (net_name "") (layers *.Cu) (tstamp f7a36fb3-c1d9-415e-8b26-59577910f690) (hatch edge 0.508)
    (connect_pads (clearance 0))
    (min_thickness 0.254) (filled_areas_thickness no)
    (keepout (tracks not_allowed) (vias not_allowed) (pads not_allowed ) (copperpour not_allowed) (footprints allowed))
    (fill (thermal_gap 0.508) (thermal_bridge_width 0.508) (island_removal_mode 0) (island_area_min 10))
    (polygon
      (pts
        (xy 0.67078 -0.121856)
        (xy 0.73098 -0.083167)
        (xy 0.760707 -0.018074)
        (xy 0.750523 0.052758)
        (xy 0.703661 0.106839)
        (xy 0.635 0.127)
        (xy 0 0.127)
        (xy -0.03578 0.121856)
        (xy -0.09598 0.083167)
        (xy -0.125707 0.018074)
        (xy -0.115523 -0.052758)
        (xy -0.068661 -0.106839)
        (xy 0 -0.127)
        (xy 0.635 -0.127)
      )
    )
  )
)
