(footprint "MULTI_LAYER_KEEP_OUT" (version 20220308) (generator pcbnew)
  (layer "F.Cu")
  (fp_text reference "REF**" (at 0 0) (layer "F.SilkS")
      (effects (font (size 1.27 1.27) (thickness 0.15)))
    (tstamp f6c12b5f-38c3-4aa3-b805-000a6ec9de63)
  )
  (fp_text value "MULTI_LAYER_KEEP_OUT" (at 0 0) (layer "F.SilkS")
      (effects (font (size 1.27 1.27) (thickness 0.15)))
    (tstamp a002c95b-8aaa-472b-8f35-74a5bf9e4d15)
  )
  (zone (net 0) (net_name "") (layers *.Cu) (tstamp 45a3d4b4-7728-4a1d-a33f-54532e6bdee1) (hatch edge 0.508)
    (connect_pads (clearance 0))
    (min_thickness 0.254) (filled_areas_thickness no)
    (keepout (tracks not_allowed) (vias not_allowed) (pads not_allowed ) (copperpour not_allowed) (footprints allowed))
    (fill (thermal_gap 0.508) (thermal_bridge_width 0.508) (island_removal_mode 0) (island_area_min 10))
    (polygon
      (pts
        (xy 0.67078 -0.121856)
        (xy 0.73098 -0.083167)
        (xy 0.760707 -0.018074)
        (xy 0.750523 0.052758)
        (xy 0.703661 0.106839)
        (xy 0.635 0.127)
        (xy 0 0.127)
        (xy -0.03578 0.121856)
        (xy -0.09598 0.083167)
        (xy -0.125707 0.018074)
        (xy -0.115523 -0.052758)
        (xy -0.068661 -0.106839)
        (xy 0 -0.127)
        (xy 0.635 -0.127)
      )
    )
  )
)
